[
    {
        "date": "2024-04-9",
        "exercises": 5
    },
    {
        "date": "2024-04-10",
        "exercises": 5
    },
    {
        "date": "2024-04-11",
        "exercises": 6
    },
    {
        "date": "2024-04-12",
        "exercises": 7
    },
    {
        "date": "2024-04-13",
        "exercises": 9
    },
    {
        "date": "2024-04-15",
        "exercises": 10
    },
    {
        "date": "2024-04-17",
        "exercises": 15
    }
]