[
    {
        "date": "2024-04-15-22-54-55",
        "duration": 262,
        "jump_height": 0.08417470500000002
    },
    {
        "date": "2024-04-15-22-54-59",
        "duration": 348,
        "jump_height": 0.14850378
    },
    {
        "date": "2024-04-15-22-55-02",
        "duration": 174,
        "jump_height": 0.037125945
    },
    {
        "date": "2024-04-16-22-55-03",
        "duration": 261,
        "jump_height": 0.08353337625
    },
    {
        "date": "2024-04-16-23-04-50",
        "duration": 2264,
        "jump_height": 6.285384719999999
    },
    {
        "date": "2024-04-16-23-23-33",
        "duration": 972474,
        "jump_height": 1159671.5909289452
    },
    {
        "date": "2024-04-16-23-23-34",
        "duration": 784,
        "jump_height": 0.7537219200000002
    },
    {
        "date": "2024-04-17-23-23-35",
        "duration": 1653,
        "jump_height": 3.3506165362500004
    },
    {
        "date": "2024-04-17-23-41-08",
        "duration": 347,
        "jump_height": 0.14765153625
    },
    {
        "date": "2024-04-17-23-41-09",
        "duration": 174,
        "jump_height": 0.037125945
    },
    {
        "date": "2024-04-17-23-43-34",
        "duration": 175,
        "jump_height": 0.03755390625
    },
    {
        "date": "2024-04-17-23-43-35",
        "duration": 435,
        "jump_height": 0.23203715625000002
    },
    {
        "date": "2024-04-17-23-43-37",
        "duration": 260,
        "jump_height": 0.08289450000000001
    }
]